%YAML 1.1
%TAG !u! tag:unity3d.com,2011:
--- !u!1001 &100100000
Prefab:
  m_ObjectHideFlags: 1
  serializedVersion: 2
  m_Modification:
    m_TransformParent: {fileID: 0}
    m_Modifications: []
    m_RemovedComponents: []
  m_SourcePrefab: {fileID: 0}
  m_RootGameObject: {fileID: 1566215663616020}
  m_IsPrefabAsset: 1
--- !u!1 &1566215663616020
GameObject:
  m_ObjectHideFlags: 0
  m_CorrespondingSourceObject: {fileID: 0}
  m_PrefabInternal: {fileID: 100100000}
  serializedVersion: 6
  m_Component:
  - component: {fileID: 4838931349778880}
  - component: {fileID: 114627192040361532}
  m_Layer: 0
  m_Name: LevelBuilder
  m_TagString: Untagged
  m_Icon: {fileID: 0}
  m_NavMeshLayer: 0
  m_StaticEditorFlags: 0
  m_IsActive: 1
--- !u!4 &4838931349778880
Transform:
  m_ObjectHideFlags: 1
  m_CorrespondingSourceObject: {fileID: 0}
  m_PrefabInternal: {fileID: 100100000}
  m_GameObject: {fileID: 1566215663616020}
  m_LocalRotation: {x: 0, y: 0, z: 0, w: 1}
  m_LocalPosition: {x: -8.20176, y: -3.7329724, z: -0.49675333}
  m_LocalScale: {x: 1, y: 1, z: 1}
  m_Children: []
  m_Father: {fileID: 0}
  m_RootOrder: 0
  m_LocalEulerAnglesHint: {x: 0, y: 0, z: 0}
--- !u!114 &114627192040361532
MonoBehaviour:
  m_ObjectHideFlags: 1
  m_CorrespondingSourceObject: {fileID: 0}
  m_PrefabInternal: {fileID: 100100000}
  m_GameObject: {fileID: 1566215663616020}
  m_Enabled: 1
  m_EditorHideFlags: 0
  m_Script: {fileID: 11500000, guid: 77c73c6fe25e37b4d9544927e224cebb, type: 3}
  m_Name: 
  m_EditorClassIdentifier: 
  wallPrefab: {fileID: 1608732852122128, guid: 17908e58e32478649aeeca8687873b5d, type: 2}
  floorPrefab: {fileID: 1561103457760006, guid: 121f85aa13c760941b556739554e32b1,
    type: 2}
  minRoomWidth: 5
  maxRoomWidth: 10
  minRoomHeight: 5
  maxRoomHeight: 10
  minRooms: 5
  maxRooms: 8
  space: 3
  duration: 1
